[api-updater (non-obsolete-error-filter)] 2/10/2022 3:53:19 PM : Starting C:/Program Files/Unity/Hub/Editor/2020.3.26f1/Editor/Data/Tools/ScriptUpdater/APIUpdater.NonObsoleteApiUpdaterDetector.exe
[api-updater (non-obsolete-error-filter)] 
----------------------------------
jit/startup time      : 3599.8694ms
moved types parse time: 46ms
candidates parse time : 1ms
C# parse time         : 166ms
candidates check time : 24ms
console write time    : 0ms

